; generated by Slic3r 1.3.0 on 2020-04-13 at 16:12:48

; external perimeters extrusion width = 0.30mm (1.21mm^3/s)
; perimeters extrusion width = 0.30mm (1.21mm^3/s)
; infill extrusion width = 0.30mm (1.61mm^3/s)
; solid infill extrusion width = 0.30mm (1.21mm^3/s)
; top infill extrusion width = 0.30mm (1.21mm^3/s)

M107
M104 S195 ; set temperature
;G28								; DO NOT home all axes 2020 04 10 19:00 
;G32								; DO NOT execute bed Z-plane  compensation 2020 04 10 19:00
M83								; set extruder to relative mode
T0									; select tool ZERO
M116                                                             ; wait for temperatures



; Filament gcode

M109 S195 ; set temperature and wait for it to be reached
G21 ; set units to millimeters
G90 ; use absolute coordinates
M83 ; use relative distances for extrusion
G1 E-3.50000 F2400.00000
G1 Z0.225 F9000.000
G1 X64.035 Y65.132 F9000.000
G1 E3.50000 F2400.00000
G1 F600
G1 X65.674 Y64.218 E0.07929
G1 X66.975 Y64.023 E0.05560
G1 X73.025 Y64.023 E0.25564
G1 X74.859 Y64.419 E0.07929
G1 X76.368 Y65.535 E0.07929
G1 X77.282 Y67.174 E0.07929
G1 X77.477 Y68.475 E0.05560
G1 X77.477 Y71.525 E0.12888
G1 X77.081 Y73.359 E0.07929
G1 X75.965 Y74.868 E0.07929
G1 X74.326 Y75.782 E0.07929
G1 X73.025 Y75.977 E0.05560
G1 X66.975 Y75.977 E0.25564
G1 X65.141 Y75.581 E0.07929
G1 X63.632 Y74.465 E0.07929
G1 X62.718 Y72.826 E0.07929
G1 X62.523 Y71.525 E0.05560
G1 X62.523 Y68.475 E0.12888
G1 X62.919 Y66.641 E0.07929
G1 X64.008 Y65.168 E0.07739
G1 E-3.50000 F2400.00000
G1 Z0.375 F9000.000
G1 Z0.525 F9000.000
M106 S255
G1 Z0.675 F9000.000
G1 Z0.825 F9000.000
G1 Z0.975 F9000.000
G1 Z1.125 F9000.000
G1 Z1.275 F9000.000
G1 Z1.425 F9000.000
G1 Z1.575 F9000.000
G1 Z1.725 F9000.000
G1 Z1.875 F9000.000
G1 Z2.025 F9000.000
G1 Z2.175 F9000.000
G1 Z2.325 F9000.000
G1 Z2.475 F9000.000
G1 Z2.625 F9000.000
G1 Z2.775 F9000.000
G1 Z2.925 F9000.000
G1 Z3.075 F9000.000
G1 Z3.225 F9000.000
G1 Z3.375 F9000.000
G1 Z3.525 F9000.000
G1 Z3.675 F9000.000
G1 Z3.825 F9000.000
G1 Z3.975 F9000.000
G1 Z4.125 F9000.000
G1 Z4.275 F9000.000
G1 Z4.425 F9000.000
G1 Z4.575 F9000.000
G1 Z4.725 F9000.000
G1 Z4.875 F9000.000
G1 Z5.025 F9000.000
G1 Z5.175 F9000.000
G1 Z5.325 F9000.000
G1 Z5.475 F9000.000
G1 Z5.625 F9000.000
G1 Z5.775 F9000.000
G1 Z5.925 F9000.000
G1 Z6.075 F9000.000
G1 Z6.225 F9000.000
G1 Z6.375 F9000.000
G1 Z6.525 F9000.000
G1 Z6.675 F9000.000
G1 Z6.825 F9000.000
G1 Z6.975 F9000.000
G1 Z7.125 F9000.000
G1 Z7.275 F9000.000
G1 Z7.425 F9000.000
G1 Z7.575 F9000.000
G1 Z7.725 F9000.000
G1 Z7.875 F9000.000
G1 Z8.025 F9000.000
G1 Z8.175 F9000.000
G1 Z8.325 F9000.000
G1 Z8.475 F9000.000
G1 Z8.625 F9000.000
G1 Z8.775 F9000.000
G1 Z8.925 F9000.000
G1 Z9.075 F9000.000
G1 Z9.225 F9000.000
G1 Z9.375 F9000.000
G1 Z9.525 F9000.000
G1 Z9.675 F9000.000
G1 Z9.825 F9000.000
G1 Z9.975 F9000.000
M107
; Filament-specific end gcode 
;END gcode for filament

G91				; Set to Relative Positioning so that we can go up a fixed distance from current position which is the end of the print
G1 Z4				; move up 4mm from where we were when the print ended
G90				; Set to Absolute Positioning 
G10 P0 S-273 R-273	; Set tool 0 operating and standby temperatures  to negative 273 C means switched off, and zero all offsets
G4 S1				; wait for zero seconds?
G1 X112  Y140		; move to X:115, Y:140, i.e. eject !  updated 2020 03 31 13:37
G4 S1				; wait for zero seconds?
M140 S-273			;  set bed heater  to switched off
M104 S0 ; set temperature
; filament used = 1.9mm (0.0cm3)
; total filament cost = 0.0

; avoid_crossing_perimeters = 0
; bed_shape = 0x0,140x0,140x140,0x140
; bed_temperature = 0
; before_layer_gcode = 
; between_objects_gcode = 
; bridge_acceleration = 0
; bridge_fan_speed = 100
; brim_connections_width = 0
; brim_width = 0
; complete_objects = 0
; cooling = 1
; default_acceleration = 0
; disable_fan_first_layers = 3
; duplicate_distance = 6
; end_filament_gcode = "; Filament-specific end gcode \n;END gcode for filament\n"
; end_gcode = G91				; Set to Relative Positioning so that we can go up a fixed distance from current position which is the end of the print\nG1 Z4				; move up 4mm from where we were when the print ended\nG90				; Set to Absolute Positioning \nG10 P0 S-273 R-273	; Set tool 0 operating and standby temperatures  to negative 273 C means switched off, and zero all offsets\nG4 S1				; wait for zero seconds?\nG1 X112  Y140		; move to X:115, Y:140, i.e. eject !  updated 2020 03 31 13:37\nG4 S1				; wait for zero seconds?\nM140 S-273			;  set bed heater  to switched off
; extruder_clearance_height = 20
; extruder_clearance_radius = 20
; extruder_offset = 0x0
; extrusion_axis = E
; extrusion_multiplier = 1
; fan_always_on = 0
; fan_below_layer_time = 60
; filament_colour = #FFFFFF
; filament_cost = 0
; filament_density = 0
; filament_diameter = 1.75
; filament_max_volumetric_speed = 0
; filament_notes = ""
; first_layer_acceleration = 0
; first_layer_bed_temperature = 0
; first_layer_extrusion_width = 0.5
; first_layer_speed = 50%
; first_layer_temperature = 195
; gcode_arcs = 0
; gcode_comments = 0
; gcode_flavor = reprap
; has_heatbed = 1
; infill_acceleration = 0
; infill_first = 0
; interior_brim_width = 0
; layer_gcode = 
; max_fan_speed = 100
; max_layer_height = 0.3
; max_print_speed = 80
; max_volumetric_speed = 0
; min_fan_speed = 100
; min_layer_height = 0.15
; min_print_speed = 10
; min_skirt_length = 0
; notes = 
; nozzle_diameter = 0.3
; only_retract_when_crossing_perimeters = 1
; ooze_prevention = 0
; output_filename_format = [input_filename_base].gcode
; perimeter_acceleration = 0
; post_process = 
; pressure_advance = 0
; printer_notes = 
; resolution = 0
; retract_before_travel = 2
; retract_layer_change = 1
; retract_length = 3.5
; retract_length_toolchange = 10
; retract_lift = 0
; retract_lift_above = 0
; retract_lift_below = 0
; retract_restart_extra = 0
; retract_restart_extra_toolchange = 0
; retract_speed = 40
; skirt_distance = 4
; skirt_height = 1
; skirts = 1
; slowdown_below_layer_time = 20
; spiral_vase = 0
; standby_temperature_delta = -5
; start_filament_gcode = "; Filament gcode\n"
; start_gcode = ;G28								; DO NOT home all axes 2020 04 10 19:00 \n;G32								; DO NOT execute bed Z-plane  compensation 2020 04 10 19:00\nM83								; set extruder to relative mode\nT0									; select tool ZERO\nM116                                                             ; wait for temperatures\n\n\n
; temperature = 195
; threads = 4
; toolchange_gcode = 
; travel_speed = 150
; use_firmware_retraction = 0
; use_relative_e_distances = 1
; use_set_and_wait_bed = 0
; use_set_and_wait_extruder = 0
; use_volumetric_e = 0
; vibration_limit = 0
; wipe = 0
; z_offset = 0
; z_steps_per_mm = 0
; adaptive_slicing = 0
; adaptive_slicing_quality = 75%
; dont_support_bridges = 1
; extrusion_width = 0.3
; first_layer_height = 150%
; infill_only_where_needed = 0
; interface_shells = 0
; layer_height = 0.15
; match_horizontal_surfaces = 0
; raft_layers = 0
; regions_overlap = 0
; seam_position = aligned
; sequential_print_priority = 0
; support_material = 0
; support_material_angle = 0
; support_material_buildplate_only = 0
; support_material_contact_distance = 0.2
; support_material_enforce_layers = 0
; support_material_extruder = 1
; support_material_extrusion_width = 0.3
; support_material_interface_extruder = 1
; support_material_interface_extrusion_width = 0
; support_material_interface_layers = 3
; support_material_interface_spacing = 0
; support_material_interface_speed = 100%
; support_material_max_layers = 0
; support_material_pattern = pillars
; support_material_spacing = 2.5
; support_material_speed = 40
; support_material_threshold = 60%
; xy_size_compensation = -0.05
; bottom_infill_pattern = rectilinear
; bottom_solid_layers = 5
; bridge_flow_ratio = 1
; bridge_speed = 30
; external_perimeter_extrusion_width = 0.3
; external_perimeter_speed = 30
; external_perimeters_first = 0
; extra_perimeters = 1
; fill_angle = 45
; fill_density = 100%
; fill_gaps = 1
; fill_pattern = rectilinear
; gap_fill_speed = 20
; infill_every_layers = 1
; infill_extruder = 1
; infill_extrusion_width = 0.3
; infill_overlap = 15%
; infill_speed = 40
; overhangs = 1
; perimeter_extruder = 1
; perimeter_extrusion_width = 0.3
; perimeter_speed = 30
; perimeters = 5
; small_perimeter_speed = 30
; solid_infill_below_area = 0
; solid_infill_every_layers = 0
; solid_infill_extruder = 1
; solid_infill_extrusion_width = 0.3
; solid_infill_speed = 30
; thin_walls = 1
; top_infill_extrusion_width = 0.3
; top_infill_pattern = rectilinear
; top_solid_infill_speed = 30
; top_solid_layers = 5
